Extract Transmissions Matrix from Network Epidemic Model — is.transmat • EpiModel
…
## Extract the transmission matrix from simulation 2
get_transmat(mod, sim = 2)
#> # A tibble: 24 × 8
#> # Groups:   at, sus [24]
#>       at   sus   inf network infDur transProb actRate finalProb
#>    <dbl> <int> <int>   <int>  <dbl>     <dbl>   <dbl>     <dbl>
#>  1     2     1    68       1      9      0.3        1      0.3 
#>  2     2    19    81       1      8      0.3        1      0.3 
#>  3     2    21    92       1      8      0.3        1      0.3 
#>  4     2    43    77       1      9      0.3        1      0.3 
#>  5     3    13    81       1      9      0.3        1      0.3 
#>  6     3    35     8       1      9      0.3        1      0.3 
#>  7     3    36    42       1      3      0.3        1      0.3 
#>  8     4    20    16       1      7      0.3        1      0.3 
#>  9     4    45    78       1      5      0.3        1      0.3 
#> 10     4    84    36       1      1      0.15       1      0.15
#> # ℹ 14 more rows
…
